{
	"name": "Rodrigo",
	"surname": "Máveric",
	"age": 19,
	"nationality": "Nacionalidad/portugal.png",
	"participated": 74,
	"failed": 23,
	"distinguished": 28,
	"abandoned": 15,
	"won": 11,
	"image": "Pilotos/Pit172.png"
}
